Chapter 5 Statistical significance and p-values | Introductory Biostatisics with R
…
No one carries out bootstrapping using bits of paper and hat. Generating 10000 bootstrapped samples via such a method would obviously take a very long time! Luckily, computers are very good at carrying out repetitive tasks quickly. We’re going to work through how to implement the bootstrap for our hypothetical example.

The best way to understand what follows is by actually running the example code line by line. You are encouraged to do this, but it is certainly not essential. You can gain an adequate understanding bootstrapping by simply reading through the example.

Set up and read the data

Assume we had sampled 250 individuals from the new plant population. A data set representing this situation is stored in the Comma Separated Value (CSV) file called ‘MORPH_DATA.CSV.’ Let’s assume these data have been read into a tibble called morph_data, e.g.

morph_data <- read_csv(file = "MORPH_DATA.CSV")

The data set looks like this:

morph_data

## # A tibble: 250 × 2
##    Colour Weight
##    <chr>   <dbl>
##  1 Green    714.
##  2 Green    693.
##  3 Green    556.
##  4 Purple   654.
##  5 Green    673.
##  6 Green    661.
##  7 Green    445.
##  8 Green    482.
##  9 Green    648.
## 10 Green    858.
## # … with 240 more rows
…
